OFF
#
#  cube.off
#  A cube.
#  There is extra RGBA color information specified for the faces.
#
8 6 12
1.632993   0.000000   1.154701
0.000000   1.632993   1.154701
-1.632993   0.000000   1.154701
0.000000  -1.632993   1.154701
1.632993   0.000000  -1.154701
0.000000   1.632993  -1.154701
-1.632993   0.000000  -1.154701
0.000000  -1.632993  -1.154701
3  0 1 4
3  3 4 0
3  4 5 1
3  5 6 2
3  3 2 6
3  6 5 4
